module bitbucket.org/HelgeOlav/http2mqtt

go 1.15

require (
	github.com/eclipse/paho.mqtt.golang v1.3.0
	github.com/fsnotify/fsnotify v1.4.9 // indirect
	github.com/magiconair/properties v1.8.4 // indirect
	github.com/mitchellh/mapstructure v1.4.0 // indirect
	github.com/pelletier/go-toml v1.8.1 // indirect
	github.com/spf13/afero v1.5.1 // indirect
	github.com/spf13/cast v1.3.1 // indirect
	github.com/spf13/jwalterweatherman v1.1.0 // indirect
	github.com/spf13/pflag v1.0.5
	github.com/spf13/viper v1.7.1
	golang.org/x/sys v0.0.0-20201211090839-8ad439b19e0f // indirect
	golang.org/x/text v0.3.4 // indirect
	gopkg.in/ini.v1 v1.62.0 // indirect
	gopkg.in/yaml.v2 v2.4.0 // indirect
)
